Loading & Cleaning Data in R
…
Excellent!

Specifics of loading functions

col_names

Geolocator data

my_data <- read_csv("data/geolocators.csv")
my_data

# A tibble: 20 × 2
   `02/05/11 22:29:59`  `64`
   <chr>               <dbl>
 1 02/05/11 22:31:59      64
 2 02/05/11 22:33:59      38
 3 02/05/11 22:35:59      38
 4 02/05/11 22:37:59      34
 5 02/05/11 22:39:59      30
 6 02/05/11 22:41:59      34
 7 02/05/11 22:43:59      40
 8 02/05/11 22:45:59      46
 9 02/05/11 22:47:59      48
10 02/05/11 22:49:59      46
# ℹ 10 more rows
…
read_csv, read_tsv, etc. assume that the first row contains the column names

This file doesn’t have headers

col_names

Geolocator data

Declare no headings

my_data <- read_csv("data/geolocators.csv", 
                    col_names = FALSE)
my_data

# A tibble: 21 × 2
   X1                   X2
   <chr>             <dbl>
 1 02/05/11 22:29:59    64
 2 02/05/11 22:31:59    64
 3 02/05/11 22:33:59    38
 4 02/05/11 22:35:59    38
 5 02/05/11 22:37:59    34
 6 02/05/11 22:39:59    30
 7 02/05/11 22:41:59    34
 8 02/05/11 22:43:59    40
 9 02/05/11 22:45:59    46
10 02/05/11 22:47:59    48
# ℹ 11 more rows

Name headings

my_data <- read_csv("data/geolocators.csv", 
                    col_names = c("date", "light"))
my_data

# A tibble: 21 × 2
   date              light
   <chr>             <dbl>
 1 02/05/11 22:29:59    64
 2 02/05/11 22:31:59    64
 3 02/05/11 22:33:59    38
 4 02/05/11 22:35:59    38
 5 02/05/11 22:37:59    34
 6 02/05/11 22:39:59    30
 7 02/05/11 22:41:59    34
 8 02/05/11 22:43:59    40
 9 02/05/11 22:45:59    46
10 02/05/11 22:47:59    48
# ℹ 11 more rows

skip info rows before data

Grain size data

my_data <- read_tsv("data/grain_size.txt")
my_data

# A tibble: 36 × 7
   `DATA DOWNLOAD: 2015-09-23` ...2  ...3        ...4     ...5  ...6  ...7 
   <chr>                       <chr> <chr>       <chr>    <chr> <chr> <chr>
 1 SYSTEM 001                  <NA>  <NA>        <NA>     <NA>  <NA>  <NA> 
 2 LOGGER X                    <NA>  <NA>        <NA>     <NA>  <NA>  <NA> 
 3 lab_num                     CSP   sample_num  depth_lb csa   msa   fsa  
 4 3177                        CSP01 CSP01-P-1-1 4        13.04 17.37 8.19 
 5 3178                        CSP01 CSP01-P-1-2 12       10.74 16.9  7.92 
 6 3179                        CSP01 CSP01-P-1-3 35       12.11 17.75 6.99 
 7 3180                        CSP01 CSP01-P-1-4 53       17.61 18.16 6.29 
 8 3181                        CSP01 CSP01-P-1-5 83       21.05 18.38 6.26 
 9 3182                        CSP01 CSP01-P-1-6 105      19.02 18.43 6.28 
10 3183                        CSP08 CSP08-P-1-1 10       11.6  17.14 8.18 
# ℹ 26 more rows
…
Ah ha!
Metadata was stored at the top of the file

skip info rows before data

Grain size data

Add skip = 3 to skip the first three rows

my_data <- read_tsv("data/grain_size.txt", skip = 3)
my_data

# A tibble: 33 × 7
   lab_num CSP   sample_num  depth_lb   csa   msa   fsa
     <dbl> <chr> <chr>          <dbl> <dbl> <dbl> <dbl>
 1    3177 CSP01 CSP01-P-1-1        4 13.0  17.4   8.19
 2    3178 CSP01 CSP01-P-1-2       12 10.7  16.9   7.92
 3    3179 CSP01 CSP01-P-1-3       35 12.1  17.8   6.99
 4    3180 CSP01 CSP01-P-1-4       53 17.6  18.2   6.29
 5    3181 CSP01 CSP01-P-1-5       83 21.0  18.4   6.26
 6    3182 CSP01 CSP01-P-1-6      105 19.0  18.4   6.28
 7    3183 CSP08 CSP08-P-1-1       10 11.6  17.1   8.18
 8    3184 CSP08 CSP08-P-1-2       27 15.4  16.2   6.76
 9    3185 CSP08 CSP08-P-1-3       90 14.9  15.8   7.12
10    3186 CSP02 CSP02-P-1-1        5  8.75  8.64  3.41
# ℹ 23 more rows
Much better!

Your turn: Load this data set

Load the telemetry data set: Sta A Data 2006-11-07.dmp

Look at the file

Decide which R function to use based on delimiter (comma, space, or tab?)

Any other options need to be specified?

It should look like this:

# A tibble: 19 × 7
  StartDate Time     Frequency `Rate/Temp`   Pwr Ant      SD
      <dbl> <time>       <dbl>       <dbl> <dbl> <chr> <dbl>
1     39022 17:15:36      150.        34.8   175 M0        0
2     39022 17:19:14      148.        19.2    72 M0        0
3     39022 17:19:25      148.        19.7   194 M1        0
4     39022 17:20:04      149.        33.8   104 M0        0
5     39022 17:20:17      149.        33.7   152 M1        0
6     39022 17:20:57      150.        34.2   188 M0        0
7     39022 17:22:50      148.         9.8   188 M0        0
# ℹ 12 more rows
…
Looking for problems

Look at the data

Make sure columns as expected (correctly assigned file format)

Make sure no extra lines above the data (should we have used a skip?)

Make sure column names look appropriate

library(palmerpenguins)
penguins

# A tibble: 344 × 8
   species island    bill_length_mm bill_depth_mm flipper_length_mm body_mass_g sex     year
   <fct>   <fct>              <dbl>         <dbl>             <int>       <int> <fct>  <int>
 1 Adelie  Torgersen           39.1          18.7               181        3750 male    2007
 2 Adelie  Torgersen           39.5          17.4               186        3800 female  2007
 3 Adelie  Torgersen           40.3          18                 195        3250 female  2007
 4 Adelie  Torgersen           NA            NA                  NA          NA <NA>    2007
 5 Adelie  Torgersen           36.7          19.3               193        3450 female  2007
 6 Adelie  Torgersen           39.3          20.6               190        3650 male    2007
 7 Adelie  Torgersen           38.9          17.8               181        3625 female  2007
 8 Adelie  Torgersen           39.2          19.6               195        4675 male    2007
 9 Adelie  Torgersen           34.1          18.1               193        3475 <NA>    2007
10 Adelie  Torgersen           42            20.2               190        4250 <NA>    2007
# ℹ 334 more rows
…
Example of problematic data

rivers_correct.csv

Look at the data

rivers <- read_csv("data/rivers_correct.csv")
rivers

# A tibble: 300 × 7
   `River Name` Site        Ele       Amo `Temperature C°`  Year Wea   
   <chr>        <chr>       <chr>   <dbl>            <dbl> <dbl> <chr> 
 1 Grasse       Up stream   Al     0.606            10.9    2019 cloudy
 2 Grasse       Mid stream  Al     0.425             8.68   2020 cloudy
 3 Grase        Down stream Al     0.194             8.75   2021 snowy 
 4 Oswegatchie  Up stream   Al     1                 0.791  2022 sunny 
 5 Oswegatchie  Mid stream  Al     0.161             9.32   2023 cloudy
 6 Oswegatchie  Down stream Al     0.0333           10.6    2019 cloudy
 7 Raquette     Up stream   Al     0.292             4.01   2020 sunny 
 8 Raquette     Mid stream  Al     0.0389            5.96   2021 cloudy
 9 Raquette     Down stream Al    NA                 6.21   2022 cloudy
10 St. Regis    Up stream   Al     0.681             8.02   2023 cloudy
# ℹ 290 more rows
…
Find any problems?

Fixing problems

Cleaning column names

clean_names() is from janitor*

* not part of the tidyverse but tidyverse-orientated

library(janitor)
rivers <- clean_names(rivers)
rivers

# A tibble: 300 × 7
   river_name  site        ele       amo temperature_c  year wea   
   <chr>       <chr>       <chr>   <dbl>         <dbl> <dbl> <chr> 
 1 Grasse      Up stream   Al     0.606         10.9    2019 cloudy
 2 Grasse      Mid stream  Al     0.425          8.68   2020 cloudy
 3 Grase       Down stream Al     0.194          8.75   2021 snowy 
 4 Oswegatchie Up stream   Al     1              0.791  2022 sunny 
 5 Oswegatchie Mid stream  Al     0.161          9.32   2023 cloudy
 6 Oswegatchie Down stream Al     0.0333        10.6    2019 cloudy
 7 Raquette    Up stream   Al     0.292          4.01   2020 sunny 
 8 Raquette    Mid stream  Al     0.0389         5.96   2021 cloudy
 9 Raquette    Down stream Al    NA              6.21   2022 cloudy
10 St. Regis   Up stream   Al     0.681          8.02   2023 cloudy
# ℹ 290 more rows
…
Cleaning column names

rename() is from dplyr*

rename() columns

rivers <- rename(rivers, element = ele, amount = amo, temperature = temperature_c)
rivers

# A tibble: 300 × 7
   river_name  site        element  amount temperature  year wea   
   <chr>       <chr>       <chr>     <dbl>       <dbl> <dbl> <chr> 
 1 Grasse      Up stream   Al       0.606       10.9    2019 cloudy
 2 Grasse      Mid stream  Al       0.425        8.68   2020 cloudy
 3 Grase       Down stream Al       0.194        8.75   2021 snowy 
 4 Oswegatchie Up stream   Al       1            0.791  2022 sunny 
 5 Oswegatchie Mid stream  Al       0.161        9.32   2023 cloudy
 6 Oswegatchie Down stream Al       0.0333      10.6    2019 cloudy
 7 Raquette    Up stream   Al       0.292        4.01   2020 sunny 
 8 Raquette    Mid stream  Al       0.0389       5.96   2021 cloudy
 9 Raquette    Down stream Al      NA            6.21   2022 cloudy
10 St. Regis   Up stream   Al       0.681        8.02   2023 cloudy
# ℹ 290 more rows
…
OR, unselect() columns you don’t want

rivers <- select(rivers, -wea)
rivers

# A tibble: 300 × 6
   river_name  site        element  amount temperature  year
   <chr>       <chr>       <chr>     <dbl>       <dbl> <dbl>
 1 Grasse      Up stream   Al       0.606       10.9    2019
 2 Grasse      Mid stream  Al       0.425        8.68   2020
 3 Grase       Down stream Al       0.194        8.75   2021
 4 Oswegatchie Up stream   Al       1            0.791  2022
 5 Oswegatchie Mid stream  Al       0.161        9.32   2023
 6 Oswegatchie Down stream Al       0.0333      10.6    2019
 7 Raquette    Up stream   Al       0.292        4.01   2020
 8 Raquette    Mid stream  Al       0.0389       5.96   2021
 9 Raquette    Down stream Al      NA            6.21   2022
10 St. Regis   Up stream   Al       0.681        8.02   2023
# ℹ 290 more rows

Cleaning columns

Put it all together

rivers <- read_csv("data/rivers_correct.csv")
rivers <- clean_names(rivers)
rivers <- rename(rivers, element = ele, amount = amo, temperature = temperature_c)
rivers <- select(rivers, -wea)
rivers

# A tibble: 300 × 6
   river_name  site        element  amount temperature  year
   <chr>       <chr>       <chr>     <dbl>       <dbl> <dbl>
 1 Grasse      Up stream   Al       0.606       10.9    2019
 2 Grasse      Mid stream  Al       0.425        8.68   2020
 3 Grase       Down stream Al       0.194        8.75   2021
 4 Oswegatchie Up stream   Al       1            0.791  2022
 5 Oswegatchie Mid stream  Al       0.161        9.32   2023
 6 Oswegatchie Down stream Al       0.0333      10.6    2019
 7 Raquette    Up stream   Al       0.292        4.01   2020
 8 Raquette    Mid stream  Al       0.0389       5.96   2021
 9 Raquette    Down stream Al      NA            6.21   2022
10 St. Regis   Up stream   Al       0.681        8.02   2023
# ℹ 290 more rows
…
Dealing with NAs

Data that is missing
Data that should be missing

Exploring NAs

We saw missing values in amount

Use filter() to take a closer look

filter(rivers, is.na(amount))

# A tibble: 39 × 6
   river_name  site        element amount temperature  year
   <chr>       <chr>       <chr>    <dbl>       <dbl> <dbl>
 1 Raquette    Down stream Al          NA        6.21  2022
 2 Raquette    Up stream   Ba          NA        5.23  2022
 3 Raquette    Up stream   Br          NA      -99     2019
 4 Oswegatchie Up stream   Ca          NA        4.76  2023
 5 Raquette    Down stream Ce          NA       13.9   2020
 6 Grasse      Up stream   Cu          NA        9.13  2019
 7 Raquette    Down stream Dy          NA        4.98  2019
 8 Raquette    Down stream Er          NA        3.07  2021
 9 Raquette    Down stream Fe          NA        7.20  2023
10 Raquette    Down stream Gd          NA        4.73  2020
# ℹ 29 more rows
…
Side Note: filter() also omits NAs 😱

If we filter by the column with NAs, they are silently dropped

filter(rivers, amount < 0.05)

# A tibble: 15 × 6
   river_name  site        element  amount temperature  year
   <chr>       <chr>       <chr>     <dbl>       <dbl> <dbl>
 1 Oswegatchie Down stream Al      0.0333       10.6    2019
 2 Raquette    Mid stream  Al      0.0389        5.96   2021
 3 Grasse      Mid stream  Br      0.0357       12.4    2019
 4 St. Regis   Up stream   Br      0.0357        3.52   2022
 5 St. Regis   Mid stream  Br      0.0357        0.936  2023
 6 Raquette    Mid stream  Ce      0.0116        6.61   2019
 7 Raquette    Mid stream  Fe      0.00656      10.8    2022
 8 Grasse      Up stream   K       0.0313        3.61   2021
 9 Raquette    Mid stream  La      0.0275        2.50   2020
10 Oswegatchie Down stream Mn      0.00672       8.89   2019
# ℹ 5 more rows

We need to be explicit if we want to keep them

filter(rivers, amount < 0.05 | is.na(amount))

# A tibble: 54 × 6
   river_name  site        element  amount temperature  year
   <chr>       <chr>       <chr>     <dbl>       <dbl> <dbl>
 1 Oswegatchie Down stream Al       0.0333      10.6    2019
 2 Raquette    Mid stream  Al       0.0389       5.96   2021
 3 Raquette    Down stream Al      NA            6.21   2022
 4 Raquette    Up stream   Ba      NA            5.23   2022
 5 Grasse      Mid stream  Br       0.0357      12.4    2019
 6 Raquette    Up stream   Br      NA          -99      2019
 7 St. Regis   Up stream   Br       0.0357       3.52   2022
 8 St. Regis   Mid stream  Br       0.0357       0.936  2023
 9 Oswegatchie Up stream   Ca      NA            4.76   2023
10 Raquette    Mid stream  Ce       0.0116       6.61   2019
# ℹ 44 more rows
…
b <- c(1, 0, 20)

as.character(b)
as.numeric(b)
as.logical(b)
as.factor(b)

Look for problems

rivers

# A tibble: 300 × 6
   river_name  site        element  amount temperature  year
   <chr>       <chr>       <chr>     <dbl>       <dbl> <dbl>
 1 Grasse      Up stream   Al       0.606       10.9    2019
 2 Grasse      Mid stream  Al       0.425        8.68   2020
 3 Grasse      Down stream Al       0.194        8.75   2021
 4 Oswegatchie Up stream   Al       1            0.791  2022
 5 Oswegatchie Mid stream  Al       0.161        9.32   2023
 6 Oswegatchie Down stream Al       0.0333      10.6    2019
 7 Raquette    Up stream   Al       0.292        4.01   2020
 8 Raquette    Mid stream  Al       0.0389       5.96   2021
 9 Raquette    Down stream Al      NA            6.21   2022
10 St. Regis   Up stream   Al       0.681        8.02   2023
# ℹ 290 more rows

Year could be categorical (factor)
Better for plotting!
(although it really depends)

Convert to categorical

rivers <- mutate(rivers, year = factor(year))
rivers

# A tibble: 300 × 6
   river_name  site        element  amount temperature year 
   <chr>       <chr>       <chr>     <dbl>       <dbl> <fct>
 1 Grasse      Up stream   Al       0.606       10.9   2019 
 2 Grasse      Mid stream  Al       0.425        8.68  2020 
 3 Grasse      Down stream Al       0.194        8.75  2021 
 4 Oswegatchie Up stream   Al       1            0.791 2022 
 5 Oswegatchie Mid stream  Al       0.161        9.32  2023 
 6 Oswegatchie Down stream Al       0.0333      10.6   2019 
 7 Raquette    Up stream   Al       0.292        4.01  2020 
 8 Raquette    Mid stream  Al       0.0389       5.96  2021 
 9 Raquette    Down stream Al      NA            6.21  2022 
10 St. Regis   Up stream   Al       0.681        8.02  2023 
# ℹ 290 more rows
…
Dates and Times

(Or why does R hate me?)

Dates and Times

Date/times aren’t always recognized as date/times

geolocators <- read_csv("data/geolocators.csv", col_names = c("time", "light"))
geolocators

# A tibble: 21 × 2
  time              light
  <chr>             <dbl>
1 02/05/11 22:29:59    64
2 02/05/11 22:31:59    64
3 02/05/11 22:33:59    38
4 02/05/11 22:35:59    38
5 02/05/11 22:37:59    34
6 02/05/11 22:39:59    30
# ℹ 15 more rows
…
You may know it’s a date, but R does not

Artwork by @allison_horst

lubridate package *

Part of tidyverse, but needs to be loaded separately

Great for converting date/times (i.e. telling R this is a date/time)

library(lubridate)
geolocators <- mutate(geolocators, time_fixed = dmy_hms(time))
geolocators

# A tibble: 21 × 3
  time              light time_fixed         
  <chr>             <dbl> <dttm>             
1 02/05/11 22:29:59    64 2011-05-02 22:29:59
2 02/05/11 22:31:59    64 2011-05-02 22:31:59
3 02/05/11 22:33:59    38 2011-05-02 22:33:59
4 02/05/11 22:35:59    38 2011-05-02 22:35:59
5 02/05/11 22:37:59    34 2011-05-02 22:37:59
6 02/05/11 22:39:59    30 2011-05-02 22:39:59
# ℹ 15 more rows
…
