Summarizing & Transforming Data in R
…
Getting ready

Check out the data:

library(tidyverse)
size <- read_csv("data/grain_size2.csv")
size

Using data sets:

grain_size2.csv

grain_meta.csv

# A tibble: 114 × 9
   plot  depth coarse_sand medium_sand fine_sand coarse_silt medium_silt fine_silt  clay
   <chr> <dbl>       <dbl>       <dbl>     <dbl>       <dbl>       <dbl>     <dbl> <dbl>
 1 CSP01     4       13.0        17.4      19.7        14.1        11.2       8.17  16.3
 2 CSP01    12       10.7        16.9      19.2        14.1        11.7       9.03  18.4
 3 CSP01    35       12.1        17.8      16.1        10.3         9.51      7.47  26.7
 4 CSP01    53       17.6        18.2      14.3         9.4         9.1       8.7   22.7
 5 CSP01    83       21.0        18.4      14.3         9.79        8.79      7.29  20.4
 6 CSP01   105       19.0        18.4      14.4        10.8         9.4       8.22  19.7
 7 CSP08    10       11.6        17.1      20.8        16.3         9.55      6.23  18.4
 8 CSP08    27       15.4        16.2      17.8        14.3        10.4       6.1   19.6
 9 CSP08    90       14.9        15.8      18.6        15.1        11.5       7.56  16.5
10 CSP02     5        8.75        8.64      8.66       12.0        18.3      15.2   28.5
# ℹ 104 more rows
…
select() variables

select() by name

select(size, coarse_sand, medium_sand, fine_sand)

# A tibble: 114 × 3
  coarse_sand medium_sand fine_sand
        <dbl>       <dbl>     <dbl>
1        13.0        17.4      19.7
2        10.7        16.9      19.2
3        12.1        17.8      16.1
4        17.6        18.2      14.3
# ℹ 110 more rows

Using helper functions

select(size, ends_with("sand"))

# A tibble: 114 × 3
  coarse_sand medium_sand fine_sand
        <dbl>       <dbl>     <dbl>
1        13.0        17.4      19.7
2        10.7        16.9      19.2
3        12.1        17.8      16.1
4        17.6        18.2      14.3
# ℹ 110 more rows
…
    B
2023-08-19
21
76

Joining data sets

Index or Metadata

meta <- read_csv("data/grain_meta.csv")
meta

# A tibble: 27 × 4
   plot  habitat   technician date      
   <chr> <chr>     <chr>      <date>    
 1 CSP01 forest    Catharine  2009-04-23
 2 CSP02 forest    Catharine  2009-05-06
 3 CSP03 clearcut  Jason      2008-09-03
 4 CSP04 forest    Catharine  2008-09-29
 5 CSP05 grassland Catharine  2009-02-05
 6 CSP06 grassland Jason      2008-07-01
 7 CSP07 grassland Jason      2008-11-19
 8 CSP08 grassland Catharine  2009-03-02
 9 CSP09 forest    Catharine  2008-08-21
10 CSP10 grassland Jason      2009-02-17
11 CSP11 forest    Jason      2008-09-16
12 CSP12 grassland Catharine  2009-03-28
13 CSP13 grassland Catharine  2008-07-13
14 CSP14 clearcut  Jason      2009-06-01
15 CSP15 forest    Yasir      2008-12-02
# ℹ 12 more rows

Measurements

size <- read_csv("data/grain_size2.csv")
size

# A tibble: 114 × 9
   plot  depth coarse_sand medium_sand fine_sand coarse_silt
   <chr> <dbl>       <dbl>       <dbl>     <dbl>       <dbl>
 1 CSP01     4       13.0        17.4      19.7        14.1 
 2 CSP01    12       10.7        16.9      19.2        14.1 
 3 CSP01    35       12.1        17.8      16.1        10.3 
 4 CSP01    53       17.6        18.2      14.3         9.4 
 5 CSP01    83       21.0        18.4      14.3         9.79
 6 CSP01   105       19.0        18.4      14.4        10.8 
 7 CSP08    10       11.6        17.1      20.8        16.3 
 8 CSP08    27       15.4        16.2      17.8        14.3 
 9 CSP08    90       14.9        15.8      18.6        15.1 
10 CSP02     5        8.75        8.64      8.66       12.0 
11 CSP02    11        9.89        8.68      8.34       10.7 
12 CSP02    36        8.15        9.24      8.55       10.7 
13 CSP02    56       12.0         8.63      8.06       11.1 
14 CSP02    70       17.5        10.5       8.45       11.2 
15 CSP02    78       23.3        15.0      11.0         9.97
# ℹ 99 more rows
# ℹ 3 more variables: medium_silt <dbl>, fine_silt <dbl>, clay <dbl>
…
Joining data sets

Keep all measurements, only keep meta if we have a measurement

size <- left_join(x = size, y = meta, by = "plot")

# A tibble: 114 × 9
   plot  depth coarse_sand medium_sand fine_sand coarse_silt medium_silt fine_silt  clay
   <chr> <dbl>       <dbl>       <dbl>     <dbl>       <dbl>       <dbl>     <dbl> <dbl>
 1 CSP01     4       13.0        17.4      19.7        14.1        11.2       8.17  16.3
 2 CSP01    12       10.7        16.9      19.2        14.1        11.7       9.03  18.4
 3 CSP01    35       12.1        17.8      16.1        10.3         9.51      7.47  26.7
 4 CSP01    53       17.6        18.2      14.3         9.4         9.1       8.7   22.7
 5 CSP01    83       21.0        18.4      14.3         9.79        8.79      7.29  20.4
 6 CSP01   105       19.0        18.4      14.4        10.8         9.4       8.22  19.7
 7 CSP08    10       11.6        17.1      20.8        16.3         9.55      6.23  18.4
 8 CSP08    27       15.4        16.2      17.8        14.3        10.4       6.1   19.6
 9 CSP08    90       14.9        15.8      18.6        15.1        11.5       7.56  16.5
10 CSP02     5        8.75        8.64      8.66       12.0        18.3      15.2   28.5
# ℹ 104 more rows
…
Creating new columns

size <- read_csv("data/grain_size2.csv") |>
  mutate(total_sand = coarse_sand + medium_sand + fine_sand)

Creates new column at the end, total_sand

# A tibble: 114 × 10
   plot  depth coarse_sand medium_sand fine_sand coarse_silt medium_silt fine_silt  clay total_sand
   <chr> <dbl>       <dbl>       <dbl>     <dbl>       <dbl>       <dbl>     <dbl> <dbl>      <dbl>
 1 CSP01     4       13.0        17.4      19.7        14.1        11.2       8.17  16.3       50.1
 2 CSP01    12       10.7        16.9      19.2        14.1        11.7       9.03  18.4       46.8
 3 CSP01    35       12.1        17.8      16.1        10.3         9.51      7.47  26.7       46  
 4 CSP01    53       17.6        18.2      14.3         9.4         9.1       8.7   22.7       50.1
 5 CSP01    83       21.0        18.4      14.3         9.79        8.79      7.29  20.4       53.8
 6 CSP01   105       19.0        18.4      14.4        10.8         9.4       8.22  19.7       51.9
 7 CSP08    10       11.6        17.1      20.8        16.3         9.55      6.23  18.4       49.6
 8 CSP08    27       15.4        16.2      17.8        14.3        10.4       6.1   19.6       49.5
 9 CSP08    90       14.9        15.8      18.6        15.1        11.5       7.56  16.5       49.2
10 CSP02     5        8.75        8.64      8.66       12.0        18.3      15.2   28.5       26.0
# ℹ 104 more rows
…
meta <- read_csv("data/grain_meta.csv")
size <- read_csv("data/grain_size2.csv") |>
  left_join(meta, by = "plot") |>
  mutate(total_sand = coarse_sand + medium_sand + fine_sand,
         total_silt = coarse_silt + medium_silt + fine_silt)

Your turn: Creating new columns

Add a calculation for total silt

Check your work

select(size, contains("silt"))

# A tibble: 114 × 4
   coarse_silt medium_silt fine_silt total_silt
         <dbl>       <dbl>     <dbl>      <dbl>
 1       14.1        11.2       8.17       33.5
 2       14.1        11.7       9.03       34.8
 3       10.3         9.51      7.47       27.3
 4        9.4         9.1       8.7        27.2
 5        9.79        8.79      7.29       25.9
 6       10.8         9.4       8.22       28.4
 7       16.3         9.55      6.23       32.1
 8       14.3        10.4       6.1        30.8
 9       15.1        11.5       7.56       34.2
10       12.0        18.3      15.2        45.4
# ℹ 104 more rows
…
You can create total_sand and total_silt in the first two lines then use them in the 3rd

But you could not create total_sand and total_silt after using them

Tangent

Decimal points

Where are…

… the decimal points?

tibble rounds values for easy viewing

# A tibble: 114 × 15
  plot  depth coarse_sand medium_sand fine_sand coarse_silt medium_silt fine_silt  clay habitat
  <chr> <dbl>       <dbl>       <dbl>     <dbl>       <dbl>       <dbl>     <dbl> <dbl> <chr>  
1 CSP01     4        13.0        17.4      19.7       14.1        11.2       8.17  16.3 forest 
2 CSP01    12        10.7        16.9      19.2       14.1        11.7       9.03  18.4 forest 
3 CSP01    35        12.1        17.8      16.1       10.3         9.51      7.47  26.7 forest 
4 CSP01    53        17.6        18.2      14.3        9.4         9.1       8.7   22.7 forest 
5 CSP01    83        21.0        18.4      14.3        9.79        8.79      7.29  20.4 forest 
# ℹ 109 more rows
# ℹ 5 more variables: technician <chr>, date <date>, total_sand <dbl>, total_silt <dbl>,
#   total <dbl>
…
Mutating by group

mutate() without grouping

size <- size |>
  mutate(mean_sand_all = mean(total_sand))

# A tibble: 114 × 3
   plot  total_sand mean_sand_all
   <chr>      <dbl>         <dbl>
 1 CSP01       50.1          39.6
 2 CSP01       46.8          39.6
 3 CSP01       46            39.6
 4 CSP01       50.1          39.6
 5 CSP01       53.8          39.6
 6 CSP01       51.9          39.6
 7 CSP08       49.6          39.6
 8 CSP08       49.5          39.6
 9 CSP08       49.2          39.6
10 CSP02       26.0          39.6
# ℹ 104 more rows

Overall mean calculated

Grouping via group_by():

size <- size |>
  group_by(plot) |>
  mutate(mean_sand_plot = mean(total_sand)) |>
  ungroup()

# A tibble: 114 × 3
  plot  total_sand mean_sand_plot
  <chr>      <dbl>          <dbl>
1 CSP01       50.1           49.8
2 CSP01       46.8           49.8
3 CSP01       46             49.8
4 CSP01       50.1           49.8
5 CSP01       53.8           49.8
6 CSP01       51.9           49.8
7 CSP08       49.6           49.4
8 CSP08       49.5           49.4
# ℹ 106 more rows
…
Your turn: Mutating by group

Add a column containing the mean amount of total silt per plot

meta <- read_csv("data/grain_meta.csv")
size <- read_csv("data/grain_size2.csv") |>
  left_join(meta, by = "plot") |>
  mutate(total_sand = coarse_sand + medium_sand + fine_sand,
         total_silt = coarse_silt + medium_silt + fine_silt) |>
  group_by(plot) |>
  mutate(mean_silt = mean(total_silt)) |>
  ungroup()

# A tibble: 114 × 6
   plot  coarse_silt medium_silt fine_silt total_silt mean_silt
   <chr>       <dbl>       <dbl>     <dbl>      <dbl>     <dbl>
 1 CSP01       14.1        11.2       8.17       33.5      29.5
 2 CSP01       14.1        11.7       9.03       34.8      29.5
 3 CSP01       10.3         9.51      7.47       27.3      29.5
 4 CSP01        9.4         9.1       8.7        27.2      29.5
 5 CSP01        9.79        8.79      7.29       25.9      29.5
 6 CSP01       10.8         9.4       8.22       28.4      29.5
 7 CSP08       16.3         9.55      6.23       32.1      32.4
 8 CSP08       14.3        10.4       6.1        30.8      32.4
 9 CSP08       15.1        11.5       7.56       34.2      32.4
10 CSP02       12.0        18.3      15.2        45.4      40.9
# ℹ 104 more rows
…
meta <- read_csv("data/grain_meta.csv")
size <- read_csv("data/grain_size2.csv") |>
  left_join(meta, by = "plot") |>
  mutate(total_sand = coarse_sand + medium_sand + fine_sand,
         total_silt = coarse_silt + medium_silt + fine_silt) |>
  group_by(plot) |>
  mutate(mean_sand = mean(total_sand),
         mean_silt = mean(total_silt)) |> 
  ungroup()

Check it out

select(size, plot, depth, total_sand, total_silt, mean_sand, mean_silt)

# A tibble: 114 × 6
   plot  depth total_sand total_silt mean_sand mean_silt
   <chr> <dbl>      <dbl>      <dbl>     <dbl>     <dbl>
 1 CSP01     4       50.1       33.5      49.8      29.5
 2 CSP01    12       46.8       34.8      49.8      29.5
 3 CSP01    35       46         27.3      49.8      29.5
 4 CSP01    53       50.1       27.2      49.8      29.5
 5 CSP01    83       53.8       25.9      49.8      29.5
 6 CSP01   105       51.9       28.4      49.8      29.5
 7 CSP08    10       49.6       32.1      49.4      32.4
 8 CSP08    27       49.5       30.8      49.4      32.4
 9 CSP08    90       49.2       34.2      49.4      32.4
10 CSP02     5       26.0       45.4      34.7      40.9
# ℹ 104 more rows
…
Summarizing by group

Similar to mutate(), but collapses rows whereas mutate() repeats data

mutate()

size <- size |>
  group_by(plot) |>
  mutate(mean_sand = mean(total_sand)) |>
  ungroup()

select(size, plot, contains("sand"))

# A tibble: 114 × 6
   plot  coarse_sand medium_sand fine_sand total_sand mean_sand
   <chr>       <dbl>       <dbl>     <dbl>      <dbl>     <dbl>
 1 CSP01       13.0        17.4      19.7        50.1      49.8
 2 CSP01       10.7        16.9      19.2        46.8      49.8
 3 CSP01       12.1        17.8      16.1        46        49.8
 4 CSP01       17.6        18.2      14.3        50.1      49.8
 5 CSP01       21.0        18.4      14.3        53.8      49.8
 6 CSP01       19.0        18.4      14.4        51.9      49.8
 7 CSP08       11.6        17.1      20.8        49.6      49.4
 8 CSP08       15.4        16.2      17.8        49.5      49.4
 9 CSP08       14.9        15.8      18.6        49.2      49.4
10 CSP02        8.75        8.64      8.66       26.0      34.7
# ℹ 104 more rows
Repeated values

Summarizing by group

Similar to mutate(), but collapses rows whereas mutate() repeats data

summarize()

size <- size |>
  group_by(plot) |>
  summarize(mean_sand = mean(total_sand), .groups = "drop")   # Ungroup data

size

# A tibble: 27 × 2
   plot  mean_sand
   <chr>     <dbl>
 1 CSP01      49.8
 2 CSP02      34.7
 3 CSP03      29.9
 4 CSP04      30.3
 5 CSP05      44.6
 6 CSP06      37.8
 7 CSP07      36.6
 8 CSP08      49.4
 9 CSP09      37.9
10 CSP10      34.6
# ℹ 17 more rows

Note:
Drops unused columns

Summarizing by group

Keep other id columns by adding them to group_by()

Beware: think carefully about grouping variables!

size |> 
  group_by(plot, depth) |>
  summarize(mean_sand = mean(total_sand), .groups = "drop")

# A tibble: 114 × 3
   plot  depth mean_sand
   <chr> <dbl>     <dbl>
 1 CSP01     4      50.1
 2 CSP01    12      46.8
 3 CSP01    35      46  
 4 CSP01    53      50.1
 5 CSP01    83      53.8
 6 CSP01   105      51.9
 7 CSP02     5      26.0
 8 CSP02    11      26.9
 9 CSP02    36      25.9
10 CSP02    56      28.7
# ℹ 104 more rows

depth is not a category, therefore not an appropriate grouping factor

Summarizing by group

Use true groups of interest (e.g., Sex, Age)

Or use factors which are on the same level (e.g., ID columns)

size |> 
  group_by(plot, habitat) |>
  summarize(mean_sand = mean(total_sand), .groups = "drop")

# A tibble: 27 × 3
   plot  habitat   mean_sand
   <chr> <chr>         <dbl>
 1 CSP01 forest         49.8
 2 CSP02 forest         34.7
 3 CSP03 clearcut       29.9
 4 CSP04 forest         30.3
 5 CSP05 grassland      44.6
 6 CSP06 grassland      37.8
 7 CSP07 grassland      36.6
 8 CSP08 grassland      49.4
 9 CSP09 forest         37.9
10 CSP10 grassland      34.6
# ℹ 17 more rows
…
For example…

size |>
  group_by(plot) |>
  summarize(samples_total = n(), 
            .groups = "drop")

# A tibble: 27 × 2
  plot  samples_total
  <chr>         <int>
1 CSP01             6
2 CSP02             7
3 CSP03             4
4 CSP04             5
5 CSP05             5
6 CSP06             5
7 CSP07             3
8 CSP08             3
# ℹ 19 more rows
…
Your Turn: Calculate summary statistics

Check your work

size_sum

# A tibble: 27 × 9
# Groups:   plot [27]
   plot  habitat   sample_size mean_sand sd_sand se_sand mean_silt sd_silt se_silt
   <chr> <chr>           <int>     <dbl>   <dbl>   <dbl>     <dbl>   <dbl>   <dbl>
 1 CSP01 forest              6      49.8   2.96    1.21       29.5   3.72    1.52 
 2 CSP02 forest              7      34.7  10.8     4.06       40.9   4.29    1.62 
 3 CSP03 clearcut            4      29.9   4.89    2.45       43.6   3.25    1.63 
 4 CSP04 forest              5      30.3   2.18    0.973      43.0   0.544   0.243
 5 CSP05 grassland           5      44.6   5.52    2.47       31.8   1.81    0.811
 6 CSP06 grassland           5      37.8   4.10    1.83       48.1   3.32    1.49 
 7 CSP07 grassland           3      36.6   7.30    4.21       39.8   1.05    0.609
 8 CSP08 grassland           3      49.4   0.176   0.102      32.4   1.73    0.998
 9 CSP09 forest              5      37.9   2.98    1.33       38.4   1.17    0.524
10 CSP10 grassland           3      34.6   9.71    5.61       44.1   5.41    3.13 
# ℹ 17 more rows
…
Going long

size_long <- size |>
  pivot_longer(cols = c(-plot, -depth, -habitat, -technician, -date),
               names_to = "type", values_to = "amount")

From wide …

# A tibble: 114 × 6
   plot  depth coarse_silt medium_silt fine_silt total_silt
   <chr> <dbl>       <dbl>       <dbl>     <dbl>      <dbl>
 1 CSP01     4       14.1        11.2       8.17       33.5
 2 CSP01    12       14.1        11.7       9.03       34.8
 3 CSP01    35       10.3         9.51      7.47       27.3
 4 CSP01    53        9.4         9.1       8.7        27.2
 5 CSP01    83        9.79        8.79      7.29       25.9
 6 CSP01   105       10.8         9.4       8.22       28.4
 7 CSP08    10       16.3         9.55      6.23       32.1
 8 CSP08    27       14.3        10.4       6.1        30.8
 9 CSP08    90       15.1        11.5       7.56       34.2
10 CSP02     5       12.0        18.3      15.2        45.4
# ℹ 104 more rows

… to long

# A tibble: 456 × 4
   plot  depth type        amount
   <chr> <dbl> <chr>        <dbl>
 1 CSP01     4 coarse_silt  14.1 
 2 CSP01     4 medium_silt  11.2 
 3 CSP01     4 fine_silt     8.17
 4 CSP01     4 total_silt   33.5 
 5 CSP01    12 coarse_silt  14.1 
 6 CSP01    12 medium_silt  11.7 
 7 CSP01    12 fine_silt     9.03
 8 CSP01    12 total_silt   34.8 
 9 CSP01    35 coarse_silt  10.3 
10 CSP01    35 medium_silt   9.51
# ℹ 446 more rows
…
Going long

size_long <- pivot_longer(size, cols = c(-plot, -depth, -habitat, -technician, -date),
                          names_to = "type", values_to = "amount")

# A tibble: 1,026 × 7
   plot  depth habitat technician date       type        amount
   <chr> <dbl> <chr>   <chr>      <date>     <chr>        <dbl>
 1 CSP01     4 forest  Catharine  2009-04-23 coarse_sand  13.0 
 2 CSP01     4 forest  Catharine  2009-04-23 medium_sand  17.4 
 3 CSP01     4 forest  Catharine  2009-04-23 fine_sand    19.7 
 4 CSP01     4 forest  Catharine  2009-04-23 coarse_silt  14.1 
 5 CSP01     4 forest  Catharine  2009-04-23 medium_silt  11.2 
 6 CSP01     4 forest  Catharine  2009-04-23 fine_silt     8.17
 7 CSP01     4 forest  Catharine  2009-04-23 clay         16.3 
 8 CSP01     4 forest  Catharine  2009-04-23 total_sand   50.1 
 9 CSP01     4 forest  Catharine  2009-04-23 total_silt   33.5 
10 CSP01    12 forest  Catharine  2009-04-23 coarse_sand  10.7 
11 CSP01    12 forest  Catharine  2009-04-23 medium_sand  16.9 
12 CSP01    12 forest  Catharine  2009-04-23 fine_sand    19.2 
# ℹ 1,014 more rows
Your turn: Lengthen data

We’ll first create a summary dataset for sand variables

sand_sum <- read_csv("data/grain_size2.csv") |>
  mutate(total_sand = coarse_sand + medium_sand + fine_sand) |>
  group_by(plot) |>
  summarize(sample_size = n(),
            mean_sand = mean(total_sand),
            sd_sand = sd(total_sand),
            se_sand = sd_sand / sqrt(sample_size))

sand_sum

# A tibble: 27 × 5
   plot  sample_size mean_sand sd_sand se_sand
   <chr>       <int>     <dbl>   <dbl>   <dbl>
 1 CSP01           6      49.8   2.96    1.21 
 2 CSP02           7      34.7  10.8     4.06 
 3 CSP03           4      29.9   4.89    2.45 
 4 CSP04           5      30.3   2.18    0.973
 5 CSP05           5      44.6   5.52    2.47 
 6 CSP06           5      37.8   4.10    1.83 
 7 CSP07           3      36.6   7.30    4.21 
 8 CSP08           3      49.4   0.176   0.102
 9 CSP09           5      37.9   2.98    1.33 
10 CSP10           3      34.6   9.71    5.61 
# ℹ 17 more rows
…
